A Brief Intro to Tidyverse
…
You will notice that unlike the base-R function, read_csv tells you how it has interpreted data in each of the columns. There are several types of identifiers here as follows:

col_date

col_character

col_double

These are data type specifications implemented by readr. For example, the column with date header is being correctly identified as date time data. Information in column state is being read correctly as characters, and finally number of cases (cases) is being read as double, which is a type of numerical data.

Let’s now check what our data looks like:

college

# A tibble: 1,948 x 9
   date       state  county  city   ipeds_id college      cases cases_2021 notes
   <date>     <chr>  <chr>   <chr>  <chr>    <chr>        <dbl>      <dbl> <chr>
 1 2021-05-26 Alaba… Madison Hunts… 100654   Alabama A&M…    41         NA NA   
 2 2021-05-26 Alaba… Montgo… Montg… 100724   Alabama Sta…     2         NA NA   
 3 2021-05-26 Alaba… Limest… Athens 100812   Athens Stat…    45         10 NA   
 4 2021-05-26 Alaba… Lee     Auburn 100858   Auburn Univ…  2742        567 NA   
 5 2021-05-26 Alaba… Montgo… Montg… 100830   Auburn Univ…   220         80 NA   
 6 2021-05-26 Alaba… Walker  Jasper 102429   Bevill Stat…     4         NA NA   
 7 2021-05-26 Alaba… Jeffer… Birmi… 100937   Birmingham-…   263         49 NA   
 8 2021-05-26 Alaba… Limest… Tanner 101514   Calhoun Com…   137         53 NA   
 9 2021-05-26 Alaba… Tallap… Alexa… 100760   Central Ala…    49         10 NA   
10 2021-05-26 Alaba… Coffee  Enter… 101143   Enterprise …    76         35 NA   
# … with 1,938 more rows
…
In the example above, we used Inf option for the width of the tibble. Because this tibble is small, it fits comfortable on our screen. However, if your tibble was much wider than this, you could restrict the width to match that of your display. For example, try the following three commands and try to notice the differences between the three outputs:

college %>% print(n=15, width=150)

college %>% print(n=15, width=100)

college %>% print(n=15, width=70)

What was different about the outputs?

If you wanted to find out how many different institutions have been represented in this data set:

college %>% count(college)

# A tibble: 1,936 x 2
   college                                                                     n
   <chr>                                                                   <int>
 1 Abilene Christian University                                                1
 2 Abraham Baldwin Agricultural College                                        1
 3 Academy of Art University                                                   1
 4 Adams State University                                                      1
 5 Adelphi University                                                          1
 6 Adirondack Community College                                                1
 7 Adrian College                                                              1
 8 AdventHealth University                                                     1
 9 Agnes Scott College                                                         1
10 Air Force Institute of Technology-Graduate School of Engineering & Man…     1
# … with 1,926 more rows
…
Notice that we used column numbers above instead of their names. But of course, you could achieve the same result using names:

college %>% filter(state=="Hawaii") %>% select("date", "state", "county", "cases")

Repeat the last command with California:

col %>% filter(state=="California") %>% select("date", "state", "county", "cases") 
# A tibble: 90 x 4
   date       state      county          cases
   <date>     <chr>      <chr>           <dbl>
 1 2021-05-26 California San Francisco       0
 2 2021-05-26 California Los Angeles       101
 3 2021-05-26 California Los Angeles       108
 4 2021-05-26 California Kern                0
 5 2021-05-26 California Los Angeles        99
 6 2021-05-26 California Riverside          25
 7 2021-05-26 California Los Angeles       123
 8 2021-05-26 California Ventura            47
 9 2021-05-26 California San Luis Obispo  2021
10 2021-05-26 California Los Angeles        61
# … with 80 more rows
…
list.files()

 [1] "colleges"                       "excess-deaths"                  "LICENSE"                        "live"                          
 [5] "mask-use"                       "NEW-YORK-DEATHS-METHODOLOGY.md" "prisons"                        "PROBABLE-CASES-NOTE.md"        
 [9] "README.md"                      "rolling-averages"               "us-counties-recent.csv"         "us-counties.csv"               
[13] "us-states.csv"                  "us.csv" 

Bring in the US counties data set

counties <- read_csv("us-counties.csv")

counties

# A tibble: 1,394,421 x 6
   date       county      state      fips  cases deaths
   <date>     <chr>       <chr>      <chr> <dbl>  <dbl>
 1 2020-01-21 Snohomish   Washington 53061     1      0
 2 2020-01-22 Snohomish   Washington 53061     1      0
 3 2020-01-23 Snohomish   Washington 53061     1      0
 4 2020-01-24 Cook        Illinois   17031     1      0
 5 2020-01-24 Snohomish   Washington 53061     1      0
 6 2020-01-25 Orange      California 06059     1      0
 7 2020-01-25 Cook        Illinois   17031     1      0
 8 2020-01-25 Snohomish   Washington 53061     1      0
 9 2020-01-26 Maricopa    Arizona    04013     1      0
10 2020-01-26 Los Angeles California 06037     1      0
# … with 1,394,411 more rows

This consists of data from the beginning of the pandemic up until very recent. Just to get a handle on the range of dates for which this data is available, do this:

> range(counties$date)
[1] "2020-01-21" "2021-06-06"

Let’s subset the data for the state of California again

counties %>% filter(state=="California")

# A tibble: 25,907 x 6
   date       county      state      fips  cases deaths
   <date>     <chr>       <chr>      <chr> <dbl>  <dbl>
 1 2020-01-25 Orange      California 06059     1      0
 2 2020-01-26 Los Angeles California 06037     1      0
 3 2020-01-26 Orange      California 06059     1      0
 4 2020-01-27 Los Angeles California 06037     1      0
 5 2020-01-27 Orange      California 06059     1      0
 6 2020-01-28 Los Angeles California 06037     1      0
 7 2020-01-28 Orange      California 06059     1      0
 8 2020-01-29 Los Angeles California 06037     1      0
 9 2020-01-29 Orange      California 06059     1      0
10 2020-01-30 Los Angeles California 06037     1      0
# … with 25,897 more rows
…
It seems that one of the counties has disproportionately higher number of cases. How would we find out what county that is?

counties %>% filter(state == "California") %>% filter(cases > 1200000)

# A tibble: 94 x 6
   date       county      state      fips    cases deaths
   <date>     <chr>       <chr>      <chr>   <dbl>  <dbl>
 1 2021-03-05 Los Angeles California 06037 1200764  21910
 2 2021-03-06 Los Angeles California 06037 1202513  22008
 3 2021-03-07 Los Angeles California 06037 1203799  22029
 4 2021-03-08 Los Angeles California 06037 1204665  22041
 5 2021-03-09 Los Angeles California 06037 1205924  22099
 6 2021-03-10 Los Angeles California 06037 1207361  22213
 7 2021-03-11 Los Angeles California 06037 1208672  22304
 8 2021-03-12 Los Angeles California 06037 1208678  22304
 9 2021-03-13 Los Angeles California 06037 1210286  22446
10 2021-03-14 Los Angeles California 06037 1210920  22474
# … with 84 more rows
…
A quick eyeballing points likely to the same county for largest number of deaths. Just to verify:

counties %>% filter(state == "California") %>% filter(deaths > 10000)

# A tibble: 159 x 6
   date       county      state      fips   cases deaths
   <date>     <chr>       <chr>      <chr>  <dbl>  <dbl>
 1 2020-12-30 Los Angeles California 06037 756412  10056
 2 2020-12-31 Los Angeles California 06037 770915  10345
 3 2021-01-01 Los Angeles California 06037 790895  10552
 4 2021-01-02 Los Angeles California 06037 806523  10682
 5 2021-01-03 Los Angeles California 06037 818959  10773
 6 2021-01-04 Los Angeles California 06037 827843  10850
 7 2021-01-05 Los Angeles California 06037 840956  11071
 8 2021-01-06 Los Angeles California 06037 852510  11328
 9 2021-01-07 Los Angeles California 06037 871749  11545
10 2021-01-08 Los Angeles California 06037 889787  11863
# … with 149 more rows
…
